STA 517 3.0 Programming and Statistical Computing with R
…
---
# Exploratory Data Analysis

```r
Prestige_1 <- train %>%
  pivot_longer(c(1, 2, 3, 4), names_to="variable", values_to="value")
Prestige_1
```

.pull-left[

```
# A tibble: 320 x 4
   census type  variable    value
    <int> <fct> <chr>       <dbl>
 1   3156 wc    education   12.8 
 2   3156 wc    income    5180   
 3   3156 wc    women       76.0 
 4   3156 wc    prestige    67.5 
 5   8335 bc    education    7.92
 6   8335 bc    income    6477   
 7   8335 bc    women        5.17
 8   8335 bc    prestige    41.8 
 9   5133 wc    education   11.1 
10   5133 wc    income    8780   
# … with 310 more rows
```
…
### 3. Measure the strength of the fit

### 4. Residual analysis

---
# Observation-level statistics: `augment()`

```r
model1_fitresid <- augment(model1)
model1_fitresid
```

```
# A tibble: 80 x 9
   .rownames prestige education .fitted  .resid .std.resid   .hat .sigma .cooksd
   <chr>        <dbl>     <dbl>   <dbl>   <dbl>      <dbl>  <dbl>  <dbl>   <dbl>
 1 medical.…     67.5     12.8     58.0   9.53       1.10  0.0193   8.74 1.19e-2
 2 welders       41.8      7.92    32.3   9.49       1.10  0.0255   8.74 1.58e-2
 3 commerci…     40.2     11.1     49.2  -9.03      -1.04  0.0127   8.75 6.95e-3
 4 economis…     62.2     14.4     66.7  -4.47      -0.520 0.0347   8.80 4.85e-3
 5 farmers       44.1      6.84    26.6  17.5        2.03  0.0373   8.57 8.03e-2
 6 receptio…     38.7     11.0     48.8 -10.1       -1.16  0.0126   8.74 8.55e-3
 7 sales.su…     41.5      9.84    42.4  -0.931     -0.107 0.0138   8.81 8.04e-5
 8 mail.car…     36.1      9.22    39.2  -3.06      -0.353 0.0163   8.80 1.03e-3
 9 taxi.dri…     25.1      7.93    32.4  -7.27      -0.841 0.0254   8.77 9.22e-3
10 veterina…     66.7     15.9     74.6  -7.87      -0.926 0.0563   8.76 2.56e-2
# … with 70 more rows
```
…
Residual standard error: 7.765 on 77 degrees of freedom
Multiple R-squared:  0.7986,	Adjusted R-squared:  0.7934 
F-statistic: 152.7 on 2 and 77 DF,  p-value: < 2.2e-16
```
---
# Model 2: prestige ~ education +  `income` (cont.)

```r
model2_fitresid <- augment(model2)
model2_fitresid
```

```
# A tibble: 80 x 10
   .rownames prestige income education .fitted .resid .std.resid   .hat .sigma
   <chr>        <dbl>  <int>     <dbl>   <dbl>  <dbl>      <dbl>  <dbl>  <dbl>
 1 medical.…     67.5   5180     12.8     53.4  14.1       1.85  0.0350   7.64
 2 welders       41.8   6477      7.92    35.2   6.61      0.865 0.0317   7.78
 3 commerci…     40.2   8780     11.1     52.0 -11.8      -1.54  0.0186   7.70
 4 economis…     62.2   8049     14.4     64.6  -2.42     -0.318 0.0378   7.81
 5 farmers       44.1   3643      6.84    26.4  17.7       2.33  0.0374   7.54
 6 receptio…     38.7   2901     11.0     42.7  -3.96     -0.520 0.0405   7.80
 7 sales.su…     41.5   7482      9.84    44.7  -3.19     -0.414 0.0177   7.81
 8 mail.car…     36.1   5511      9.22    39.1  -3.00     -0.390 0.0163   7.81
 9 taxi.dri…     25.1   4224      7.93    31.8  -6.69     -0.873 0.0257   7.78
10 veterina…     66.7  14558     15.9     80.8 -14.1      -1.90  0.0853   7.63
# … with 70 more rows, and 1 more variable: .cooksd <dbl>
```
…
```r
model3_fitresid <- broom::augment(model3)
```

---

```r
model3_fitresid <- broom::augment(model3)
model3_fitresid
```

```
# A tibble: 80 x 9
   .rownames prestige `log(income)` education .fitted .std.resid   .hat .sigma
   <chr>        <dbl>         <dbl>     <dbl>   <dbl>      <dbl>  <dbl>  <dbl>
 1 medical.…     67.5          8.55     12.8     54.6      1.79  0.0254   7.19
 2 welders       41.8          8.78      7.92    36.3      0.762 0.0341   7.32
 3 commerci…     40.2          9.08     11.1     53.0     -1.77  0.0202   7.20
 4 economis…     62.2          8.99     14.4     66.0     -0.536 0.0349   7.33
 5 farmers       44.1          8.20      6.84    25.9      2.54  0.0376   7.03
 6 receptio…     38.7          7.97     11.0     41.3     -0.364 0.0423   7.34
 7 sales.su…     41.5          8.92      9.84    45.9     -0.610 0.0203   7.33
 8 mail.car…     36.1          8.61      9.22    40.2     -0.562 0.0168   7.33
 9 taxi.dri…     25.1          8.35      7.93    32.0     -0.960 0.0255   7.30
10 veterina…     66.7          9.59     15.9     78.4     -1.66  0.0642   7.21
# … with 70 more rows, and 1 more variable: .cooksd <dbl>
```
…
Pass datasets to newdata to augment data that was not used during model fitting. This still requires that at least all predictor variable columns used to fit the model are present. If the original outcome variable used to fit the model is not included in newdata, then no `.resid` column will be included in the output.

---

Add new variable (`log.income`) to the training set.

```r
train$log.income <- log(train$income)
model3 <- lm(prestige ~ log.income + education, data=train)
model3_fitresid <- broom::augment(model3)
model3_fitresid
```

```
# A tibble: 80 x 10
   .rownames prestige log.income education .fitted .resid .std.resid   .hat
   <chr>        <dbl>      <dbl>     <dbl>   <dbl>  <dbl>      <dbl>  <dbl>
 1 medical.…     67.5       8.55     12.8     54.6  12.9       1.79  0.0254
 2 welders       41.8       8.78      7.92    36.3   5.46      0.762 0.0341
 3 commerci…     40.2       9.08     11.1     53.0 -12.8      -1.77  0.0202
 4 economis…     62.2       8.99     14.4     66.0  -3.84     -0.536 0.0349
 5 farmers       44.1       8.20      6.84    25.9  18.2       2.54  0.0376
 6 receptio…     38.7       7.97     11.0     41.3  -2.60     -0.364 0.0423
 7 sales.su…     41.5       8.92      9.84    45.9  -4.40     -0.610 0.0203
 8 mail.car…     36.1       8.61      9.22    40.2  -4.07     -0.562 0.0168
 9 taxi.dri…     25.1       8.35      7.93    32.0  -6.92     -0.960 0.0255
10 veterina…     66.7       9.59     15.9     78.4 -11.7      -1.66  0.0642
# … with 70 more rows, and 2 more variables: .sigma <dbl>, .cooksd <dbl>
```
…
