STA 326 2.0 Programming and Data Analysis with R
…
```r
Prestige_1 <- train %>%
  pivot_longer(c(1, 2, 3, 4), names_to="variable", values_to="value")
Prestige_1
```

.pull-left[

```
# A tibble: 320 x 4
   census type  variable    value
    <int> <fct> <chr>       <dbl>
 1   3156 wc    education   12.8 
 2   3156 wc    income    5180   
 3   3156 wc    women       76.0 
 4   3156 wc    prestige    67.5 
 5   8335 bc    education    7.92
 6   8335 bc    income    6477   
 7   8335 bc    women        5.17
 8   8335 bc    prestige    41.8 
 9   5133 wc    education   11.1 
10   5133 wc    income    8780   
# … with 310 more rows
```
…
### 3. Measure the strength of the fit

### 4. Residual analysis

---
# Observation-level statistics: `augment()`

```r
model1_fitresid <- augment(model1)
model1_fitresid
```

```
# A tibble: 80 x 10
   .rownames prestige education .fitted .se.fit  .resid   .hat .sigma .cooksd
   <chr>        <dbl>     <dbl>   <dbl>   <dbl>   <dbl>  <dbl>  <dbl>   <dbl>
 1 medical.…     67.5     12.8     58.0   1.22    9.53  0.0193   8.74 1.19e-2
 2 welders       41.8      7.92    32.3   1.40    9.49  0.0255   8.74 1.58e-2
 3 commerci…     40.2     11.1     49.2   0.988  -9.03  0.0127   8.75 6.95e-3
 4 economis…     62.2     14.4     66.7   1.63   -4.47  0.0347   8.80 4.85e-3
 5 farmers       44.1      6.84    26.6   1.69   17.5   0.0373   8.57 8.03e-2
 6 receptio…     38.7     11.0     48.8   0.984 -10.1   0.0126   8.74 8.55e-3
 7 sales.su…     41.5      9.84    42.4   1.03   -0.931 0.0138   8.81 8.04e-5
 8 mail.car…     36.1      9.22    39.2   1.12   -3.06  0.0163   8.80 1.03e-3
 9 taxi.dri…     25.1      7.93    32.4   1.40   -7.27  0.0254   8.77 9.22e-3
10 veterina…     66.7     15.9     74.6   2.08   -7.87  0.0563   8.76 2.56e-2
# … with 70 more rows, and 1 more variable: .std.resid <dbl>
```
…
Residual standard error: 7.765 on 77 degrees of freedom
Multiple R-squared:  0.7986,	Adjusted R-squared:  0.7934 
F-statistic: 152.7 on 2 and 77 DF,  p-value: < 2.2e-16
```
---
# Model 2: prestige ~ education +  `income` (cont.)

```r
model2_fitresid <- augment(model2)
model2_fitresid
```

```
# A tibble: 80 x 11
   .rownames prestige income education .fitted .se.fit .resid   .hat .sigma
   <chr>        <dbl>  <int>     <dbl>   <dbl>   <dbl>  <dbl>  <dbl>  <dbl>
 1 medical.…     67.5   5180     12.8     53.4   1.45   14.1  0.0350   7.64
 2 welders       41.8   6477      7.92    35.2   1.38    6.61 0.0317   7.78
 3 commerci…     40.2   8780     11.1     52.0   1.06  -11.8  0.0186   7.70
 4 economis…     62.2   8049     14.4     64.6   1.51   -2.42 0.0378   7.81
 5 farmers       44.1   3643      6.84    26.4   1.50   17.7  0.0374   7.54
 6 receptio…     38.7   2901     11.0     42.7   1.56   -3.96 0.0405   7.80
 7 sales.su…     41.5   7482      9.84    44.7   1.03   -3.19 0.0177   7.81
 8 mail.car…     36.1   5511      9.22    39.1   0.991  -3.00 0.0163   7.81
 9 taxi.dri…     25.1   4224      7.93    31.8   1.24   -6.69 0.0257   7.78
10 veterina…     66.7  14558     15.9     80.8   2.27  -14.1  0.0853   7.63
# … with 70 more rows, and 2 more variables: .cooksd <dbl>, .std.resid <dbl>
```
…
