STA 326 2.0 Programming and Data Analysis with R
…
Residual standard error: 152.1 on 398 degrees of freedom
Multiple R-squared:  0.7122,	Adjusted R-squared:  0.7115 
F-statistic: 984.9 on 1 and 398 DF,  p-value: < 2.2e-16
```
---
# Fitted values, Residuals, etc.

```r
model1_fitresid <- augment(model1)
model1_fitresid
```

```
# A tibble: 400 x 9
   totalInteractio… sawbyLiked .fitted .se.fit  .resid    .hat .sigma .cooksd
              <dbl>      <dbl>   <dbl>   <dbl>   <dbl>   <dbl>  <dbl>   <dbl>
 1              578       4418    591.    7.89  -13.4  0.00269   152. 1.05e-5
 2              727       6964    673.    7.62   53.7  0.00251   152. 1.57e-4
 3              659       2254    522.    8.74  137.   0.00330   152. 1.35e-3
 4              470       1917    511.    8.91  -40.9  0.00344   152. 1.25e-4
 5             1011      22816   1183.   18.4  -172.   0.0147    152. 9.71e-3
 6              644       5752    634.    7.64    9.66 0.00252   152. 5.12e-6
 7              647       3494    562.    8.19   85.3  0.00290   152. 4.59e-4
 8              412        650    470.    9.66  -58.2  0.00403   152. 2.97e-4
 9              420       2392    526.    8.67 -106.   0.00325   152. 7.98e-4
10              805       8560    725.    7.91   80.3  0.00270   152. 3.79e-4
# … with 390 more rows, and 1 more variable: .std.resid <dbl>
```
…
Residual standard error: 142.4 on 397 degrees of freedom
Multiple R-squared:  0.7482,	Adjusted R-squared:  0.747 
F-statistic:   590 on 2 and 397 DF,  p-value: < 2.2e-16
```
---

```r
model2_fitresid <- augment(model2)
model2_fitresid
```

```
# A tibble: 400 x 10
   totalInteractio… sawbyLiked sqrt.engagedUse… .fitted .se.fit   .resid    .hat
              <dbl>      <dbl>            <dbl>   <dbl>   <dbl>    <dbl>   <dbl>
 1              578       4418             27.1    600.    7.48  -22.4   0.00276
 2              727       6964             37.8    729.   10.3    -1.97  0.00520
 3              659       2254             25.0    533.    8.32  126.    0.00341
 4              470       1917             15.8    469.   10.0     0.852 0.00495
 5             1011      22816             40.8   1150.   17.8  -139.    0.0157 
 6              644       5752             16.8    573.   10.9    71.4   0.00583
 7              647       3494             29.0    588.    8.44   58.7   0.00351
 8              412        650             17.4    447.    9.56  -34.7   0.00451
 9              420       2392             24.9    536.    8.22 -116.    0.00333
10              805       8560             29.5    720.    7.43   85.3   0.00272
# … with 390 more rows, and 3 more variables: .sigma <dbl>, .cooksd <dbl>,
#   .std.resid <dbl>
```
…
Residual standard error: 114.3 on 395 degrees of freedom
Multiple R-squared:  0.8386,	Adjusted R-squared:  0.837 
F-statistic: 513.2 on 4 and 395 DF,  p-value: < 2.2e-16
```
---

```r
model3_fitresid <- augment(model3)
model3_fitresid
```

```
# A tibble: 400 x 11
   totalInteractio… sawbyLiked sqrt.engagedUse… category .fitted .se.fit
              <dbl>      <dbl>            <dbl> <fct>      <dbl>   <dbl>
 1              578       4418             27.1 1           514.    9.41
 2              727       6964             37.8 3           831.   11.4 
 3              659       2254             25.0 2           523.   11.6 
 4              470       1917             15.8 2           470.   13.4 
 5             1011      22816             40.8 1          1066.   15.4 
 6              644       5752             16.8 3           700.   12.3 
 7              647       3494             29.0 3           697.   10.6 
 8              412        650             17.4 1           368.   10.1 
 9              420       2392             24.9 2           526.   11.6 
10              805       8560             29.5 2           711.   12.1 
# … with 390 more rows, and 5 more variables: .resid <dbl>, .hat <dbl>,
#   .sigma <dbl>, .cooksd <dbl>, .std.resid <dbl>
```
…
