Simple Linear Regression Analysis with R
…
Write the fitted regression model:

6 Model adequacy checking

6.1 Compute fitted values and residuals

slrfit_values <- augment(slrfit)
slrfit_values

# A tibble: 200 x 8
   price houseSize .fitted   .resid .std.resid    .hat .sigma     .cooksd
   <dbl>     <dbl>   <dbl>    <dbl>      <dbl>   <dbl>  <dbl>       <dbl>
 1  68.9     2503.    67.5  1.45       1.48    0.00500  0.975 0.00552    
 2  64.0     2363.    64.0  0.00442    0.00455 0.0145   0.981 0.000000152
 3  69.5     2523.    68.0  1.56       1.60    0.00520  0.974 0.00670    
 4  68.9     2492.    67.2  1.68       1.73    0.00506  0.973 0.00757    
 5  69.2     2511.    67.7  1.58       1.62    0.00504  0.974 0.00662    
 6  68.5     2476.    66.8  1.76       1.80    0.00534  0.973 0.00869    
 7  64.8     2471.    66.7 -1.86      -1.91    0.00547  0.972 0.0100     
 8  71.6     2634.    70.7  0.840      0.864   0.0134   0.979 0.00508    
 9  70.2     2581.    69.4  0.808      0.830   0.00799  0.979 0.00277    
10  65.9     2424.    65.5  0.414      0.425   0.00796  0.980 0.000725   
#  with 190 more rows
…
